…
After that, we would create a data frame with the information needed for
creating the joyplot.


```r

dem_agg[dem_agg < 0] <- 0
dem_agg[is.na(dem_agg)] <- 0

dem_df <- as.data.frame(dem_agg, xy = TRUE, na.rm = FALSE)

as_tibble(dem_df)
#> # A tibble: 12,848 x 3
#>          x        y  elev
#>      <dbl>    <dbl> <dbl>
#>  1  77184. 4306315.     0
#>  2  81049. 4306315.     0
#>  3  84914. 4306315.     0
#>  4  88779. 4306315.     0
#>  5  92644. 4306315.     0
#>  6  96510. 4306315.     0
#>  7 100375. 4306315.     0
#>  8 104240. 4306315.     0
#>  9 108105. 4306315.     0
#> 10 111970. 4306315.     0
#> # ... with 12,838 more rows
```
…
# Example, convert to miles
# Adjust as needed

dem_miles <- dem_df %>%
  mutate(
    x = set_units(x, "m"),
    x_mile = set_units(x, "mi"),
    y = set_units(y, "m"),
    y_mile = set_units(y, "mi"),
    elev = set_units(elev, "m"),
    elev_mile = set_units(elev, "mi")
  )

as_tibble(dem_miles)
#> # A tibble: 12,848 x 6
#>          x        y elev x_mile y_mile elev_mile
#>        [m]      [m]  [m]   [mi]   [mi]      [mi]
#>  1  77184. 4306315.    0   48.0  2676.         0
#>  2  81049. 4306315.    0   50.4  2676.         0
#>  3  84914. 4306315.    0   52.8  2676.         0
#>  4  88779. 4306315.    0   55.2  2676.         0
#>  5  92644. 4306315.    0   57.6  2676.         0
#>  6  96510. 4306315.    0   60.0  2676.         0
#>  7 100375. 4306315.    0   62.4  2676.         0
#>  8 104240. 4306315.    0   64.8  2676.         0
#>  9 108105. 4306315.    0   67.2  2676.         0
#> 10 111970. 4306315.    0   69.6  2676.         0
#> # ... with 12,838 more rows
```
…
